<?xml version="1.0" encoding="utf-8"?>
<!-- Generator: Adobe Illustrator 23.0.4, SVG Export Plug-In . SVG Version: 6.00 Build 0)  -->
<svg version="1.1" id="Layer_1" xmlns="http://www.w3.org/2000/svg" xmlns:xlink="http://www.w3.org/1999/xlink" x="0px" y="0px"
	 viewBox="0 0 966 1055" style="enable-background:new 0 0 966 1055;" xml:space="preserve">
<style type="text/css">
	.st0{fill:#29ABE2;}
	.st1{fill:#00FF00;}
	.st2{display:none;fill:#0080AD;}
	.st3{fill:url(#SVGID_1_);}
	.st4{display:none;fill:#E6292C;}
	.st5{fill:#E6292C;}
	.st6{fill:url(#SVGID_2_);}
	.st7{fill:url(#SVGID_3_);}
	.st8{fill:url(#SVGID_4_);}
	.st9{fill:url(#SVGID_5_);}
	.st10{fill:url(#SVGID_6_);}
	.st11{fill:url(#SVGID_7_);}
	.st12{fill:url(#SVGID_8_);}
	.st13{fill:url(#SVGID_9_);}
</style>
<g>
	<path class="st0" d="M788.97,83.43l-295.95,16.64c-5.15,0.31-10.11,0.79-14.83,1.38c-0.16,0.04-0.35,0.04-0.51,0.08
		c-2.16-0.04-4.29-0.04-6.45,0c-14.99,0.04-29.98,0.83-44.92,2.4c-99.88,10.31-197.05,53.78-273.6,130.33
		c-49.29,49.29-80.05,104.13-99.21,152.08c-19.83,49.57-27.3,91.78-30.09,112.9c-0.71,5.47-1.1,9.52-1.34,11.92
		c-0.39,4.05-1.38,17.27-1.02,36.94c0,0.59,0.04,1.26,0.04,1.89c0,0.51,0.04,1.06,0.04,1.57c1.77,69.51,20.38,212.47,131.59,323.72
		c85.72,85.68,197.21,129.94,309.56,132.61h0.59c5.04,0.12,10.11,0.12,15.15,0.08c1.18,0,2.32-0.04,3.5-0.08
		c0.87,0,1.73-0.04,2.6-0.08c25.53-0.59,51.02-3.34,76.16-8.26h0.08c14.04-2.75,27.97-6.14,41.78-10.23
		c70.18-20.65,136.27-58.69,191.62-114.04c77.3-77.3,120.85-175.61,130.6-276.51c0.59-5.9,1.02-11.8,1.38-17.7
		c0.55-9.36,0.83-18.73,0.79-28.09c-0.04-0.9-0.04-1.77-0.04-2.68c0.63-4.88,1.14-9.99,1.46-15.34l16.68-295.95
		C949.67,148.34,879.68,78.32,788.97,83.43z M718.79,790.75c-34.34,34.34-74.19,59.83-116.68,76.44
		c-16.72,6.53-33.87,11.68-51.22,15.46c-21.99,4.8-44.37,7.4-66.8,7.79h-0.04c-0.39,0.04-0.75,0.04-1.14,0.04
		c-6.69,0.08-13.38,0-20.06-0.31c-82.06-3.62-162.94-36.74-225.61-99.41c-66.13-66.09-99.37-152.56-99.76-239.18v-1.57
		c0-56.41,13.93-112.82,41.82-163.65c15.18-27.69,34.5-53.7,57.95-77.14c67.7-67.74,156.84-100.98,245.63-99.72
		c85.52,1.22,170.65,34.42,235.92,99.72c66.92,66.88,100.16,154.68,99.76,242.37c-0.08,15.77-1.22,31.55-3.5,47.21
		C804.94,669.03,772.84,736.7,718.79,790.75z"/>
	<linearGradient id="SVGID_1_" gradientUnits="userSpaceOnUse" x1="550.8895" y1="799.166" x2="924.3333" y2="799.166">
		<stop  offset="0" style="stop-color:#0D67B2"/>
		<stop  offset="0.0207" style="stop-color:#0C6DB7"/>
		<stop  offset="0.1152" style="stop-color:#0783C8"/>
		<stop  offset="0.2255" style="stop-color:#0495D6"/>
		<stop  offset="0.3598" style="stop-color:#02A1E0"/>
		<stop  offset="0.5431" style="stop-color:#00A8E5"/>
		<stop  offset="1" style="stop-color:#00AAE7"/>
	</linearGradient>
	<path class="st3" d="M924.33,598.77c-9.76,100.9-53.3,199.21-130.6,276.51c-55.35,55.35-121.44,93.39-191.62,114.04
		c-13.81,4.09-27.73,7.47-41.78,10.23h-0.08l-9.36-116.92c17.35-3.78,34.5-8.93,51.22-15.46c42.49-16.6,82.34-42.09,116.68-76.44
		c54.05-54.05,86.15-121.71,96.26-191.97H924.33z"/>
	<g>
		<path class="st5" d="M330.2,405.73l19.59,86.25c2.07,9.13,10.19,15.6,19.54,15.6h93.52v500.31c5.04,0.12,10.11,0.12,15.15,0.08
			c1.18,0,2.32-0.04,3.5-0.08c40.68-0.75,81.27-6.92,120.61-18.57V404.98c0-10.29-8.34-18.64-18.64-18.64h-237.8
			C335.49,386.34,327.94,395.8,330.2,405.73z"/>
	</g>
	<path class="st5" d="M484.09,890.43v117.39c-0.87,0.04-1.73,0.08-2.6,0.08c-1.18,0.04-2.32,0.08-3.5,0.08
		c-5.04,0.04-10.11,0.04-15.15-0.08h-0.59c-112.35-2.68-223.84-46.93-309.56-132.61C41.49,764.04,22.88,621.08,21.11,551.57
		c0-0.51-0.04-1.06-0.04-1.57c0-0.63-0.04-1.3-0.04-1.89c-0.35-19.67,0.63-32.89,1.02-36.94c0.24-2.4,0.63-6.45,1.34-11.92
		c2.79-21.13,10.27-63.34,30.09-112.9h125.81c-27.89,50.83-41.82,107.24-41.82,163.65v1.57c0.39,86.62,33.63,173.09,99.76,239.18
		c62.67,62.67,143.55,95.79,225.61,99.41c6.69,0.31,13.38,0.39,20.06,0.31c0.39,0,0.75,0,1.14-0.04H484.09z"/>
</g>
</svg>
